%YAML 1.1
%TAG !u! tag:unity3d.com,2011:
--- !u!1045 &1
EditorBuildSettings:
  m_ObjectHideFlags: 0
  serializedVersion: 2
  m_Scenes:
  - enabled: 1
    path: Assets/Scenes/MainMenu.unity
    guid: 2b513ff6f12618e14869189247ff8cb1
  - enabled: 1
    path: Assets/Scenes/SampleScene.unity
    guid: 9fc0d4010bbf28b4594072e72b8655ab
  - enabled: 1
    path: Assets/Scenes/Lose.unity
    guid: b17cce140ea3872a4b1cbdbb8fe91931
  - enabled: 1
    path: Assets/Scenes/Win.unity
    guid: 622d11eb8e68fdbcaa45691551ad11a2
  - enabled: 1
    path: Assets/Scenes/Instructions.unity
    guid: 95cfed4ac0c908a1d83040ac308405f5
  - enabled: 1
    path: Assets/Scenes/Credits.unity
    guid: 6b9ff40a5839cda8da2dd1b0894a8ec2
  m_configObjects: {}
