%YAML 1.1
%TAG !u! tag:unity3d.com,2011:
--- !u!114 &11400000
MonoBehaviour:
  m_ObjectHideFlags: 0
  m_CorrespondingSourceObject: {fileID: 0}
  m_PrefabInstance: {fileID: 0}
  m_PrefabAsset: {fileID: 0}
  m_GameObject: {fileID: 0}
  m_Enabled: 1
  m_EditorHideFlags: 0
  m_Script: {fileID: 11500000, guid: 8e6292b2c06870d4495f009f912b9600, type: 3}
  m_Name: ufobike Profile
  m_EditorClassIdentifier: 
  settings:
  - {fileID: 6198815992087613901}
  - {fileID: 5597416412293130778}
  - {fileID: 6073171590928604232}
--- !u!114 &5597416412293130778
MonoBehaviour:
  m_ObjectHideFlags: 3
  m_CorrespondingSourceObject: {fileID: 0}
  m_PrefabInstance: {fileID: 0}
  m_PrefabAsset: {fileID: 0}
  m_GameObject: {fileID: 0}
  m_Enabled: 1
  m_EditorHideFlags: 0
  m_Script: {fileID: 11500000, guid: 40b924e2dad56384a8df2a1e111bb675, type: 3}
  m_Name: Vignette
  m_EditorClassIdentifier: 
  active: 1
  enabled:
    overrideState: 1
    value: 1
  mode:
    overrideState: 0
    value: 0
  color:
    overrideState: 0
    value: {r: 0, g: 0, b: 0, a: 1}
  center:
    overrideState: 0
    value: {x: 0.5, y: 0.5}
  intensity:
    overrideState: 0
    value: 0
  smoothness:
    overrideState: 0
    value: 0.2
  roundness:
    overrideState: 0
    value: 1
  rounded:
    overrideState: 0
    value: 0
  mask:
    overrideState: 0
    value: {fileID: 0}
    defaultState: 1
  opacity:
    overrideState: 0
    value: 1
--- !u!114 &6073171590928604232
MonoBehaviour:
  m_ObjectHideFlags: 3
  m_CorrespondingSourceObject: {fileID: 0}
  m_PrefabInstance: {fileID: 0}
  m_PrefabAsset: {fileID: 0}
  m_GameObject: {fileID: 0}
  m_Enabled: 1
  m_EditorHideFlags: 0
  m_Script: {fileID: 11500000, guid: b94fcd11afffcb142908bfcb1e261fba, type: 3}
  m_Name: MotionBlur
  m_EditorClassIdentifier: 
  active: 1
  enabled:
    overrideState: 1
    value: 1
  shutterAngle:
    overrideState: 0
    value: 270
  sampleCount:
    overrideState: 0
    value: 10
--- !u!114 &6198815992087613901
MonoBehaviour:
  m_ObjectHideFlags: 3
  m_CorrespondingSourceObject: {fileID: 0}
  m_PrefabInstance: {fileID: 0}
  m_PrefabAsset: {fileID: 0}
  m_GameObject: {fileID: 0}
  m_Enabled: 1
  m_EditorHideFlags: 0
  m_Script: {fileID: 11500000, guid: 556797029e73b2347956b6579e77e05b, type: 3}
  m_Name: DepthOfField
  m_EditorClassIdentifier: 
  active: 1
  enabled:
    overrideState: 1
    value: 1
  focusDistance:
    overrideState: 0
    value: 10
  aperture:
    overrideState: 0
    value: 5.6
  focalLength:
    overrideState: 0
    value: 50
  kernelSize:
    overrideState: 0
    value: 1
