%YAML 1.1
%TAG !u! tag:unity3d.com,2011:
--- !u!114 &11400000
MonoBehaviour:
  m_ObjectHideFlags: 0
  m_CorrespondingSourceObject: {fileID: 0}
  m_PrefabInstance: {fileID: 0}
  m_PrefabAsset: {fileID: 0}
  m_GameObject: {fileID: 0}
  m_Enabled: 1
  m_EditorHideFlags: 0
  m_Script: {fileID: 11500000, guid: 6cefdb63dfafa0b4491bea1f9e22571b, type: 3}
  m_Name: D03_Dialogue_Idea
  m_EditorClassIdentifier: 
  dialogues:
  - dialogue: 'Alice: "I know, I''ll bake something for Marisa as a present! that
      way I can..." '
    protait: {fileID: 21300000, guid: ee59027a8e82f4b768537126a0a4396d, type: 3}
    lastInOrder: 0
    loadNewestScene: 0
    loadScene: 
  - dialogue: 'Alice: "...kind of confess my love to her..." '
    protait: {fileID: 21300000, guid: 874c557b5bd5cab719429f6c3ec2419b, type: 3}
    lastInOrder: 0
    loadNewestScene: 0
    loadScene: 
  - dialogue: 'Shanghai: "..."'
    protait: {fileID: 21300000, guid: 79bd37349d0ef3ae9a3e42db2e413746, type: 3}
    lastInOrder: 0
    loadNewestScene: 0
    loadScene: 
  - dialogue: 'Alice: "What should I make? hmm maybe something like a mille-feuille,
      or a sour tart?"'
    protait: {fileID: 21300000, guid: 1ebfbbc66e09471b1bf36829e83eda38, type: 3}
    lastInOrder: 0
    loadNewestScene: 0
    loadScene: 
  - dialogue: 'Alice: "I know! I should make something a bit sweet... but also bitter!"'
    protait: {fileID: 21300000, guid: 4fa1dca38fad46af493ffd6ed0b2865f, type: 3}
    lastInOrder: 0
    loadNewestScene: 0
    loadScene: 
  - dialogue: 'Alice: "Like love..."'
    protait: {fileID: 21300000, guid: 50fb0071bf67ed331b9186c526077282, type: 3}
    lastInOrder: 0
    loadNewestScene: 0
    loadScene: 
  - dialogue: 'Shanghai: "..."'
    protait: {fileID: 21300000, guid: 79bd37349d0ef3ae9a3e42db2e413746, type: 3}
    lastInOrder: 0
    loadNewestScene: 0
    loadScene: 
  - dialogue: 'Alice: "Yes!" '
    protait: {fileID: 21300000, guid: ee59027a8e82f4b768537126a0a4396d, type: 3}
    lastInOrder: 0
    loadNewestScene: 0
    loadScene: 
  - dialogue: "Alice: \"Something like a chocolate cake... a brownie!\u2606*"
    protait: {fileID: 21300000, guid: 4fa1dca38fad46af493ffd6ed0b2865f, type: 3}
    lastInOrder: 0
    loadNewestScene: 0
    loadScene: 
  - dialogue: 'Shanghai: "..."'
    protait: {fileID: 21300000, guid: 79bd37349d0ef3ae9a3e42db2e413746, type: 3}
    lastInOrder: 0
    loadNewestScene: 0
    loadScene: 
  - dialogue: 'Alice: "OK. For that I will need: - Sugar - Eggs - Flour - Cocoa Powder"'
    protait: {fileID: 21300000, guid: 647b7a983e6827d49825f5ce983ccb84, type: 3}
    lastInOrder: 0
    loadNewestScene: 0
    loadScene: 
  - dialogue: '"Hmmm.... I think I saw some of those in the forest of magic. Let''s
      go outside take a look!"'
    protait: {fileID: 21300000, guid: 1ebfbbc66e09471b1bf36829e83eda38, type: 3}
    lastInOrder: 0
    loadNewestScene: 0
    loadScene: 
  - dialogue: 'Shanghai: "..."'
    protait: {fileID: 21300000, guid: 79bd37349d0ef3ae9a3e42db2e413746, type: 3}
    lastInOrder: 1
    loadNewestScene: 1
    loadScene: 01_ForestOfMagic
