%YAML 1.1
%TAG !u! tag:unity3d.com,2011:
--- !u!114 &11400000
MonoBehaviour:
  m_ObjectHideFlags: 0
  m_CorrespondingSourceObject: {fileID: 0}
  m_PrefabInstance: {fileID: 0}
  m_PrefabAsset: {fileID: 0}
  m_GameObject: {fileID: 0}
  m_Enabled: 1
  m_EditorHideFlags: 0
  m_Script: {fileID: 11500000, guid: 6cefdb63dfafa0b4491bea1f9e22571b, type: 3}
  m_Name: Dialogue_Intro
  m_EditorClassIdentifier: 
  dialogues:
  - dialogue: 'Alice''s days had always been full of nothing.  '
    protait: {fileID: 0}
    lastInOrder: 0
    loadNewestScene: 0
    loadScene: 
  - dialogue: 'She passed the time making little dolls, small toys that looked like
      fairies. '
    protait: {fileID: 0}
    lastInOrder: 0
    loadNewestScene: 0
    loadScene: 
  - dialogue: She would make them from wood, paint them and dress them. She would
      give them cute names and then she would animate them with magic.
    protait: {fileID: 0}
    lastInOrder: 0
    loadNewestScene: 0
    loadScene: 
  - dialogue: 'It was the only thing that made her sad heart feel a tiny bit of something
      that was not a negative emotion.  '
    protait: {fileID: 0}
    lastInOrder: 0
    loadNewestScene: 0
    loadScene: 
  - dialogue: 'But when she was not focused on that, everything was dreadful. '
    protait: {fileID: 0}
    lastInOrder: 0
    loadNewestScene: 0
    loadScene: 
  - dialogue: 'Until that human appeared in the forest of magic. '
    protait: {fileID: 0}
    lastInOrder: 0
    loadNewestScene: 0
    loadScene: 
  - dialogue: 'Marisa was full of energy and life! She was always playing around,
      stealing stuff and making silly jokes '
    protait: {fileID: 0}
    lastInOrder: 0
    loadNewestScene: 0
    loadScene: 
  - dialogue: 'At first, Alice did not enjoy her quiet life being disturbed like
      this. She was comfortable in her sad, small days. '
    protait: {fileID: 0}
    lastInOrder: 0
    loadNewestScene: 0
    loadScene: 
  - dialogue: 'But that would slowly change, as they began to know each other better... '
    protait: {fileID: 0}
    lastInOrder: 1
    loadNewestScene: 1
    loadScene: D02_Flashback
